{
  "orgs": [
    {
      "id": "1",
      "name": "Tobacco, \"vodka\" and others",
      "orgs": [
        {
          "id": "3",
          "name": "Orinda Bilina",
          "orgs": []
        }
      ]
    },
    {
      "id": "2",
      "name": "Utopia",
      "orgs": [
        {
          "id": "4",
          "name": "Kheda Pascani Ltd.",
          "orgs": []
        }
      ]
    }
  ]
}