{
  "orgs": [
    {
      "id": "3",
      "name": "aa",
      "orgs": []
    },
    {
      "id": "1",
      "name": "ab",
      "orgs": [
        {
          "id": "6",
          "name": "aa2",
          "orgs": []
        },
        {
          "id": "4",
          "name": "ab2",
          "orgs": []
        },
        {
          "id": "7",
          "name": "z a",
          "orgs": []
        },
        {
          "id": "5",
          "name": "z b",
          "orgs": []
        }
      ]
    },
    {
      "id": "2",
      "name": "z",
      "orgs": []
    }
  ]
}