{
    "orgs": [
      {
        "id": "1",
        "name": "root",
        "orgs": [
          {
            "id": "4",
            "name": "a4",
            "orgs": []
          },
          {
            "id": "2",
            "name": "b2",
            "orgs": []
          },
          {
            "id": "3",
            "name": "z3",
            "orgs": [
              {
                "id": "7",
                "name": "a7",
                "orgs": []
              },
              {
                "id": "5",
                "name": "b5",
                "orgs": []
              },
              {
                "id": "6",
                "name": "z6",
                "orgs": [
                  {
                    "id": "10",
                    "name": "a10",
                    "orgs": []
                  },
                  {
                    "id": "8",
                    "name": "b8",
                    "orgs": []
                  },
                  {
                    "id": "9",
                    "name": "z8",
                    "orgs": [
                      {
                        "id": "13",
                        "name": "a13",
                        "orgs": []
                      },
                      {
                        "id": "11",
                        "name": "b11",
                        "orgs": []
                      },
                      {
                        "id": "12",
                        "name": "z12",
                        "orgs": [
                          {
                            "id": "16",
                            "name": "a16",
                            "orgs": []
                          },
                          {
                            "id": "14",
                            "name": "b14",
                            "orgs": []
                          },
                          {
                            "id": "15",
                            "name": "z15",
                            "orgs": [
                              {
                                "id": "19",
                                "name": "a19",
                                "orgs": []
                              },
                              {
                                "id": "17",
                                "name": "b17",
                                "orgs": []
                              },
                              {
                                "id": "18",
                                "name": "z18",
                                "orgs": [
                                  {
                                    "id": "22",
                                    "name": "a22",
                                    "orgs": []
                                  },
                                  {
                                    "id": "20",
                                    "name": "b20",
                                    "orgs": []
                                  },
                                  {
                                    "id": "21",
                                    "name": "z21",
                                    "orgs": []
                                  }
                                ]
                              }
                            ]
                          }
                        ]
                      }
                    ]
                  }
                ]
              }
            ]
          }
        ]
      }
    ]
  }