2,Georgetown Bloemfontein & Sons,root
5,Ciudad Choluteca Freilassing Corp.,root
3, Orinda Bilina,2
4,Kheda Pascani Ltd.,5
0,Cabo,2
7,Easthampton Corp.,2
6,Galesburg,3
8,Ambilobe Bury St Edmunds,5
1,Nigel & Partners,8
9,Skawina Pavlohrad,4
