{
  "orgs": [
    {
      "id": "5",
      "name": "Ciudad Choluteca Freilassing Corp.",
      "orgs": [
        {
          "id": "8",
          "name": "Ambilobe Bury St Edmunds",
          "orgs": [
            {
              "id": "1",
              "name": "Nigel & Partners",
              "orgs": []
            }
          ]
        },
        {
          "id": "4",
          "name": "Kheda Pascani Ltd.",
          "orgs": [
            {
              "id": "9",
              "name": "Skawina Pavlohrad",
              "orgs": []
            }
          ]
        }
      ]
    },
    {
      "id": "2",
      "name": "Georgetown Bloemfontein & Sons",
      "orgs": [
        {
          "id": "0",
          "name": "Cabo",
          "orgs": []
        },
        {
          "id": "7",
          "name": "Easthampton Corp.",
          "orgs": []
        },
        {
          "id": "3",
          "name": "Orinda Bilina",
          "orgs": [
            {
              "id": "6",
              "name": "Galesburg",
              "orgs": []
            }
          ]
        }
      ]
    }
  ]
}