{
  "orgs": [
    {
      "id": "1",
      "name": "One",
      "orgs": [
        {
          "id": "3",
          "name": "Three",
          "orgs": []
        }
      ]
    },
    {
      "id": "2",
      "name": "Two",
      "orgs": [
        {
          "id": "4",
          "name": "Four",
          "orgs": []
        }
      ]
    }
  ]
}